{
  "_comment": "Build with `packer build rhel8.json`",
  "builders": [
    {
      "type": "qemu",
      "accelerator": "kvm",
      "vm_name": "{{ user `vm_name` }}",
      "disk_size": "{{ user `disk_size` }}",
      "disk_interface": "virtio",
      "format": "qcow2",
      "headless": "{{ user `headless` }}",
      "net_device": "virtio-net",
      "iso_urls": [
        "{{ user `iso_path` }}/{{ user `iso_name` }}",
        "{{ user `iso_url` }}"
      ],
      "iso_checksum": "{{ user `iso_checksum` }}",
      "iso_checksum_type": "{{ user `iso_checksum_type` }}",
      "http_directory": "http",
      "boot_command": [
        "<tab> text ks=http://{{ .HTTPIP }}:{{ .HTTPPort }}/{{user `kickstart`}}<enter><wait>"
      ],
      "boot_wait": "5s",
      "shutdown_command": "{{ user `shutdown_command` }}",
      "ssh_password": "{{ user `ssh_password` }}",
      "ssh_username": "{{ user `ssh_username` }}",
      "ssh_port": "{{ user `ssh_port` }}",
      "ssh_wait_timeout": "{{ user `ssh_wait_timeout` }}",
      "output_directory": "builds/libvirt/{{user `vm_name`}}",
      "qemuargs": [
        [ "-m", "{{ user `memory` }}M" ],
        [ "-smp", "{{ user `cpus` }}" ],
        [ "-display", "gtk" ]
      ]
    }
  ],
  "provisioners": [
    {
      "environment_vars": [
        "http_proxy={{user `http_proxy`}}",
        "https_proxy={{user `https_proxy`}}",
        "no_proxy={{user `no_proxy`}}"
      ],
      "execute_command": "echo 'sysadmin' | {{.Vars}} sudo -S -E bash '{{.Path}}'",
      "expect_disconnect": true,
      "scripts": [
        "bin/rhel-cleanup.sh"
      ],
      "type": "shell"
    }
  ],
  "variables": {
    "vm_name":           "template-rhel8-x64-server.qcow2",
    "cpus":              "2",
    "memory":            "2048",
    "disk_size":         "81920",
    "headless":          "false",
    "http_proxy":        "{{env `http_proxy`}}",
    "https_proxy":       "{{env `https_proxy`}}",
    "no_proxy":          "{{env `no_proxy`}}",
    "iso_checksum":      "7022c8d819205701267f03e670880a7238b9187c",
    "iso_checksum_type": "sha1",
    "iso_name":          "rhel-8.3-x86_64-dvd.iso",
    "iso_path":          "iso",
    "iso_url":           "http://private.repo.local/8.3/isos/x86_64/rhel-8.3-x86_64-dvd.iso",
    "kickstart":         "rhel8.cfg",
    "shutdown_command":  "echo 'sysadmin'|sudo -S shutdown -P now",
    "ssh_password":      "sysadmin",
    "ssh_username":      "sysadmin",
    "ssh_port":          "22",
    "ssh_wait_timeout":  "20m"
  }
}

